{
    "type": "mysql",
    "host": "localhost",
    "port": 3308,
    "username": "root",
    "password": "",
    "database": "oper",
    "entities": ["dist/entity/**/*.js"],
    "synchronize": true
 }